%YAML 1.1
%TAG !u! tag:unity3d.com,2011:
--- !u!114 &11400000
MonoBehaviour:
  m_ObjectHideFlags: 0
  m_CorrespondingSourceObject: {fileID: 0}
  m_PrefabInstance: {fileID: 0}
  m_PrefabAsset: {fileID: 0}
  m_GameObject: {fileID: 0}
  m_Enabled: 1
  m_EditorHideFlags: 0
  m_Script: {fileID: 11500000, guid: dff9d85367edc43ed9243fdc54f4a29c, type: 3}
  m_Name: "Q07 Wasserpumpe mit Benzin bef\xFCllen"
  m_EditorClassIdentifier: 
  name: "Q07 Wasserpumpe mit Benzin bef\xFCllen"
  successfullActions: 0000000001000000
  successMessage: "Benzin eingef\xFCllt"
  failMessage: Die Pumpe springt nicht an
  requiredItems:
  - {fileID: 11400000, guid: 7b5c50cc6db4c430390b3d64ab08cc6f, type: 2}
  AddToInventory: []
  RemoveFromInventory:
  - {fileID: 11400000, guid: 7b5c50cc6db4c430390b3d64ab08cc6f, type: 2}
  destroyInteractable: 0
  timeToDestroyInteractable: 0
  spawnGameObject: {fileID: 0}
  spawnPosition: {x: 0, y: 0, z: 0}
  spawnRotation: {x: 0, y: 0, z: 0}
