%YAML 1.1
%TAG !u! tag:unity3d.com,2011:
--- !u!114 &11400000
MonoBehaviour:
  m_ObjectHideFlags: 0
  m_CorrespondingSourceObject: {fileID: 0}
  m_PrefabInstance: {fileID: 0}
  m_PrefabAsset: {fileID: 0}
  m_GameObject: {fileID: 0}
  m_Enabled: 1
  m_EditorHideFlags: 0
  m_Script: {fileID: 11500000, guid: dff9d85367edc43ed9243fdc54f4a29c, type: 3}
  m_Name: Q24 Keilriehmen ersetzen
  m_EditorClassIdentifier: 
  name: Q24 Keilriemen ersetzen
  successfullActions: 020000000100000000000000
  successMessage: Keilriemen ersetzt
  failMessage: Der Keilriemen ist gerissen
  requiredItems:
  - {fileID: 11400000, guid: e197c489052d042f7952db1e917fb8f5, type: 2}
  AddToInventory: []
  RemoveFromInventory:
  - {fileID: 11400000, guid: e197c489052d042f7952db1e917fb8f5, type: 2}
  destroyInteractable: 1
  timeToDestroyInteractable: 0
  spawnGameObject: {fileID: 0}
  spawnPosition: {x: 0, y: 0, z: 0}
  spawnRotation: {x: 0, y: 0, z: 0}
