%YAML 1.1
%TAG !u! tag:unity3d.com,2011:
--- !u!114 &11400000
MonoBehaviour:
  m_ObjectHideFlags: 0
  m_CorrespondingSourceObject: {fileID: 0}
  m_PrefabInstance: {fileID: 0}
  m_PrefabAsset: {fileID: 0}
  m_GameObject: {fileID: 0}
  m_Enabled: 1
  m_EditorHideFlags: 0
  m_Script: {fileID: 11500000, guid: ca6238a0d625a4091bbd6de48664fdc6, type: 3}
  m_Name: "11 Schl\xFCssel"
  m_EditorClassIdentifier: 
  itemId: 11
  name: "Schl\xFCssel"
  prefab: {fileID: 0}
  sprite: {fileID: 21300000, guid: 4a3ff11ec7cc448d985acdd4727b93e4, type: 3}
